<?xml version="1.0" encoding="UTF-8" standalone="no"?>
<!-- Created with Inkscape (http://www.inkscape.org/) -->

<svg
   xmlns:dc="http://purl.org/dc/elements/1.1/"
   xmlns:cc="http://creativecommons.org/ns#"
   xmlns:rdf="http://www.w3.org/1999/02/22-rdf-syntax-ns#"
   xmlns:svg="http://www.w3.org/2000/svg"
   xmlns="http://www.w3.org/2000/svg"
   xmlns:sodipodi="http://sodipodi.sourceforge.net/DTD/sodipodi-0.dtd"
   xmlns:inkscape="http://www.inkscape.org/namespaces/inkscape"
   width="297mm"
   height="210mm"
   viewBox="0 0 1052.3622 744.09448"
   id="svg3368"
   version="1.1"
   inkscape:version="0.91 r"
   sodipodi:docname="programa1.svg">
  <defs
     id="defs3370" />
  <sodipodi:namedview
     id="base"
     pagecolor="#ffffff"
     bordercolor="#666666"
     borderopacity="1.0"
     inkscape:pageopacity="0.0"
     inkscape:pageshadow="2"
     inkscape:zoom="0.7"
     inkscape:cx="414.52441"
     inkscape:cy="378.52092"
     inkscape:document-units="px"
     inkscape:current-layer="layer1"
     showgrid="false"
     inkscape:window-width="1362"
     inkscape:window-height="729"
     inkscape:window-x="0"
     inkscape:window-y="18"
     inkscape:window-maximized="0" />
  <metadata
     id="metadata3373">
    <rdf:RDF>
      <cc:Work
         rdf:about="">
        <dc:format>image/svg+xml</dc:format>
        <dc:type
           rdf:resource="http://purl.org/dc/dcmitype/StillImage" />
        <dc:title></dc:title>
      </cc:Work>
    </rdf:RDF>
  </metadata>
  <g
     inkscape:label="Camada 1"
     inkscape:groupmode="layer"
     id="layer1"
     transform="translate(0,-308.26772)">
    <text
       xml:space="preserve"
       style="font-style:normal;font-variant:normal;font-weight:500;font-stretch:normal;font-size:42.96870804px;line-height:125%;font-family:Delicious;-inkscape-font-specification:'Delicious Medium';letter-spacing:0px;word-spacing:0px;fill:#000000;fill-opacity:1;stroke:none;stroke-width:1px;stroke-linecap:butt;stroke-linejoin:miter;stroke-opacity:1"
       x="19.999998"
       y="511.23813"
       id="text3376"
       sodipodi:linespacing="125%"><tspan
         sodipodi:role="line"
         id="tspan3378"
         x="19.999998"
         y="511.23813">1 - repita para sempre:</tspan><tspan
         sodipodi:role="line"
         x="19.999998"
         y="564.94904"
         id="tspan3380">2 -   ler teclado</tspan><tspan
         sodipodi:role="line"
         x="19.999998"
         y="618.65991"
         id="tspan3382">3 -   guardar valor no primeiro espaço livre da CPU</tspan><tspan
         sodipodi:role="line"
         x="19.999998"
         y="672.37079"
         id="tspan3384">4 -   ler teclado</tspan><tspan
         sodipodi:role="line"
         x="19.999998"
         y="726.08167"
         id="tspan3386">5 -   guardar valor no segundo espaço livre da CPU</tspan><tspan
         sodipodi:role="line"
         x="19.999998"
         y="779.79254"
         id="tspan3388">6 -   somar primeiro espaço com segundo espaço, </tspan><tspan
         sodipodi:role="line"
         x="19.999998"
         y="833.50342"
         id="tspan3392">               e guardar resultado no terceiro espaço </tspan><tspan
         sodipodi:role="line"
         x="19.999998"
         y="887.21429"
         id="tspan3390">7 -   repassar para a tela o terceiro espaço do processador</tspan></text>
    <text
       xml:space="preserve"
       style="font-style:normal;font-variant:normal;font-weight:500;font-stretch:normal;font-size:40px;line-height:125%;font-family:Delicious;-inkscape-font-specification:'Delicious Medium';letter-spacing:0px;word-spacing:0px;fill:#000000;fill-opacity:1;stroke:none;stroke-width:1px;stroke-linecap:butt;stroke-linejoin:miter;stroke-opacity:1"
       x="384.28571"
       y="358.07648"
       id="text3394"
       sodipodi:linespacing="125%"><tspan
         sodipodi:role="line"
         id="tspan3396"
         x="384.28571"
         y="358.07648">Programa 1</tspan></text>
  </g>
</svg>
