<?xml version="1.0" encoding="UTF-8" standalone="no"?>
<!-- Created with Inkscape (http://www.inkscape.org/) -->

<svg
   xmlns:dc="http://purl.org/dc/elements/1.1/"
   xmlns:cc="http://creativecommons.org/ns#"
   xmlns:rdf="http://www.w3.org/1999/02/22-rdf-syntax-ns#"
   xmlns:svg="http://www.w3.org/2000/svg"
   xmlns="http://www.w3.org/2000/svg"
   xmlns:sodipodi="http://sodipodi.sourceforge.net/DTD/sodipodi-0.dtd"
   xmlns:inkscape="http://www.inkscape.org/namespaces/inkscape"
   width="287.86667mm"
   height="242.71111mm"
   viewBox="0 0 1020 859.99997"
   id="svg2"
   version="1.1"
   inkscape:version="0.91 r13725"
   sodipodi:docname="stack.svg">
  <defs
     id="defs4">
    <inkscape:perspective
       sodipodi:type="inkscape:persp3d"
       inkscape:vp_x="291.42857 : -7.9527585 : 1"
       inkscape:vp_y="0 : 999.99997 : 0"
       inkscape:vp_z="1192.3622 : 406.33294 : 1"
       inkscape:persp3d-origin="526.1811 : 248.03148 : 1"
       id="perspective3417" />
  </defs>
  <sodipodi:namedview
     id="base"
     pagecolor="#ffffff"
     bordercolor="#666666"
     borderopacity="1.0"
     inkscape:pageopacity="0.0"
     inkscape:pageshadow="2"
     inkscape:zoom="0.49497475"
     inkscape:cx="566.29008"
     inkscape:cy="444.5448"
     inkscape:document-units="px"
     inkscape:current-layer="layer1"
     showgrid="true"
     inkscape:window-width="1362"
     inkscape:window-height="729"
     inkscape:window-x="0"
     inkscape:window-y="18"
     inkscape:window-maximized="0"
     fit-margin-top="0"
     fit-margin-left="0"
     fit-margin-right="0"
     fit-margin-bottom="0"
     showguides="true">
    <inkscape:grid
       type="xygrid"
       id="grid4279"
       originx="3.0712851e-30"
       originy="219.99996" />
  </sodipodi:namedview>
  <metadata
     id="metadata7">
    <rdf:RDF>
      <cc:Work
         rdf:about="">
        <dc:format>image/svg+xml</dc:format>
        <dc:type
           rdf:resource="http://purl.org/dc/dcmitype/StillImage" />
        <dc:title></dc:title>
      </cc:Work>
    </rdf:RDF>
  </metadata>
  <g
     inkscape:label="Layer 1"
     inkscape:groupmode="layer"
     id="layer1"
     transform="translate(0,-412.36218)">
    <flowRoot
       transform="matrix(0.70000004,0,0,0.70000004,-62.76819,816.2804)"
       id="flowRoot5183"
       style="font-style:normal;font-variant:normal;font-weight:normal;font-stretch:normal;font-size:12px;line-height:125%;font-family:Monospace;-inkscape-font-specification:Monospace;text-align:start;letter-spacing:0px;word-spacing:0px;writing-mode:lr-tb;text-anchor:start;fill:#000000;fill-opacity:1;stroke:none;stroke-width:1px;stroke-linecap:butt;stroke-linejoin:miter;stroke-opacity:1"
       xml:space="preserve"><flowRegion
         id="flowRegion5185" /><flowPara
         style="font-size:30px;text-align:center;text-anchor:middle"
         id="flowPara5189" /></flowRoot>    <g
       id="g5297">
      <rect
         ry="0.36267"
         rx="0.36266997"
         y="637.36218"
         x="5"
         height="190"
         width="1010"
         id="rect4627"
         style="opacity:1;fill:#f2f2f2;fill-opacity:1;fill-rule:nonzero;stroke:#000000;stroke-width:10;stroke-linecap:square;stroke-linejoin:round;stroke-miterlimit:4;stroke-dasharray:none;stroke-dashoffset:0;stroke-opacity:1" />
      <path
         sodipodi:nodetypes="ccccccccccccccccc"
         inkscape:connector-curvature="0"
         id="path4641"
         d="M 494.87879,761.47838 453.82353,802.36221 395.88384,802.241 355,761.18574 l 0.12121,-57.93969 41.05526,-40.88384 57.93969,0.12122 40.88384,41.05525 20.12121,-0.29263 41.05526,-40.88384 57.93969,0.12122 L 655,703.53868 654.87879,761.47838 613.82353,802.36221 555.88384,802.241 515,761.18574 Z"
         style="opacity:1;fill:#ff0000;fill-opacity:0.58823529;fill-rule:nonzero;stroke:#000000;stroke-width:10;stroke-linecap:square;stroke-linejoin:round;stroke-miterlimit:4;stroke-dasharray:none;stroke-dashoffset:0;stroke-opacity:1" />
      <rect
         style="opacity:1;fill:#f2f2f2;fill-opacity:1;fill-rule:nonzero;stroke:#000000;stroke-width:10;stroke-linecap:square;stroke-linejoin:round;stroke-miterlimit:4;stroke-dasharray:none;stroke-dashoffset:0;stroke-opacity:1"
         id="rect4655"
         width="1010"
         height="190"
         x="5"
         y="417.36218"
         rx="0.36266997"
         ry="0.36267" />
      <path
         sodipodi:nodetypes="ccccc"
         inkscape:connector-curvature="0"
         id="path4818"
         d="m 452.88332,652.36216 -57.93969,-0.052 c 0.4518,-20.20349 0.29216,-42.17502 0.29216,-59.94804 l 57.94,0.052 c 0.0462,21.93105 0.0624,38.68956 -0.29247,59.94804 z"
         style="opacity:1;fill:#0000ff;fill-opacity:1;fill-rule:nonzero;stroke:#000000;stroke-width:10;stroke-linecap:square;stroke-linejoin:round;stroke-miterlimit:4;stroke-dasharray:none;stroke-dashoffset:0;stroke-opacity:1" />
      <path
         d="M 773.82353,802.36218 715.88384,802.24097 675,761.18571 l 0.12121,-57.93969 41.05526,-40.88384 57.93969,0.12122 40.88384,41.05525 -0.12121,57.93969 z"
         inkscape:randomized="0"
         inkscape:rounded="0"
         inkscape:flatsided="true"
         sodipodi:arg2="1.5728884"
         sodipodi:arg1="1.1801893"
         sodipodi:r2="55.361095"
         sodipodi:r1="75.702019"
         sodipodi:cy="732.36218"
         sodipodi:cx="745"
         sodipodi:sides="8"
         id="path4833"
         style="opacity:1;fill:#ff0000;fill-opacity:0.58823529;fill-rule:nonzero;stroke:#000000;stroke-width:10;stroke-linecap:square;stroke-linejoin:round;stroke-miterlimit:4;stroke-dasharray:none;stroke-dashoffset:0;stroke-opacity:1"
         sodipodi:type="star" />
      <path
         style="opacity:1;fill:#0000ff;fill-opacity:1;fill-rule:nonzero;stroke:#000000;stroke-width:10;stroke-linecap:square;stroke-linejoin:round;stroke-miterlimit:4;stroke-dasharray:none;stroke-dashoffset:0;stroke-opacity:1"
         d="m 773.81146,652.36216 -57.93969,-0.052 c 0.4518,-20.20349 0.29216,-42.17502 0.29216,-59.94804 l 57.94,0.052 c 0.0462,21.93105 0.0624,38.68956 -0.29247,59.94804 z"
         id="path4835"
         inkscape:connector-curvature="0"
         sodipodi:nodetypes="ccccc" />
      <path
         style="opacity:1;fill:#0000ff;fill-opacity:1;fill-rule:nonzero;stroke:#000000;stroke-width:10;stroke-linecap:square;stroke-linejoin:round;stroke-miterlimit:4;stroke-dasharray:none;stroke-dashoffset:0;stroke-opacity:1"
         d="m 613.81146,652.36216 -57.93969,-0.052 c 0.4518,-20.20349 0.29216,-42.17502 0.29216,-59.94804 l 57.94,0.052 c 0.0462,21.93105 0.0624,38.68956 -0.29247,59.94804 z"
         id="path4837"
         inkscape:connector-curvature="0"
         sodipodi:nodetypes="ccccc" />
      <path
         d="M 613.82353,582.36218 555.88384,582.24097 515,541.18571 l 0.12121,-57.93969 41.05526,-40.88384 57.93969,0.12122 40.88384,41.05525 -0.12121,57.93969 z"
         inkscape:randomized="0"
         inkscape:rounded="0"
         inkscape:flatsided="true"
         sodipodi:arg2="1.5728884"
         sodipodi:arg1="1.1801893"
         sodipodi:r2="55.361095"
         sodipodi:r1="75.702019"
         sodipodi:cy="512.36218"
         sodipodi:cx="585"
         sodipodi:sides="8"
         id="path4913"
         style="opacity:1;fill:#ff0000;fill-opacity:0.58823529;fill-rule:nonzero;stroke:#000000;stroke-width:10;stroke-linecap:square;stroke-linejoin:round;stroke-miterlimit:4;stroke-dasharray:none;stroke-dashoffset:0;stroke-opacity:1"
         sodipodi:type="star" />
      <text
         xml:space="preserve"
         style="font-style:normal;font-variant:normal;font-weight:normal;font-stretch:normal;font-size:8.40000057px;line-height:125%;font-family:Monospace;-inkscape-font-specification:Monospace;text-align:start;letter-spacing:0px;word-spacing:0px;writing-mode:lr-tb;text-anchor:start;fill:#000000;fill-opacity:1;stroke:none;stroke-width:1px;stroke-linecap:butt;stroke-linejoin:miter;stroke-opacity:1"
         x="527.80371"
         y="518.15564"
         id="text4915"
         sodipodi:linespacing="125%"><tspan
           sodipodi:role="line"
           id="tspan4917"
           style="font-size:21.00000191px"
           x="527.80371"
           y="518.15564">Rhythmbox</tspan></text>
      <path
         sodipodi:type="star"
         style="opacity:1;fill:#ff0000;fill-opacity:0.58823529;fill-rule:nonzero;stroke:#000000;stroke-width:10;stroke-linecap:square;stroke-linejoin:round;stroke-miterlimit:4;stroke-dasharray:none;stroke-dashoffset:0;stroke-opacity:1"
         id="path4931"
         sodipodi:sides="8"
         sodipodi:cx="424.07187"
         sodipodi:cy="512.36218"
         sodipodi:r1="75.702019"
         sodipodi:r2="55.361095"
         sodipodi:arg1="1.1801893"
         sodipodi:arg2="1.5728884"
         inkscape:flatsided="true"
         inkscape:rounded="0"
         inkscape:randomized="0"
         d="m 452.8954,582.36218 -57.93969,-0.12121 -40.88384,-41.05526 0.12121,-57.93969 41.05526,-40.88384 57.93969,0.12122 40.88384,41.05525 -0.12122,57.93969 z" />
      <text
         sodipodi:linespacing="125%"
         id="text4933"
         y="520.24744"
         x="373.86362"
         style="font-style:normal;font-variant:normal;font-weight:normal;font-stretch:normal;font-size:8.40000057px;line-height:125%;font-family:Monospace;-inkscape-font-specification:Monospace;text-align:start;letter-spacing:0px;word-spacing:0px;writing-mode:lr-tb;text-anchor:start;fill:#000000;fill-opacity:1;stroke:none;stroke-width:1px;stroke-linecap:butt;stroke-linejoin:miter;stroke-opacity:1"
         xml:space="preserve"><tspan
           y="520.24744"
           x="373.86362"
           style="font-size:21.00000191px"
           id="tspan4935"
           sodipodi:role="line">Nautilus</tspan></text>
      <text
         xml:space="preserve"
         style="font-style:normal;font-variant:normal;font-weight:normal;font-stretch:normal;font-size:8.40000057px;line-height:125%;font-family:Monospace;-inkscape-font-specification:Monospace;text-align:start;letter-spacing:0px;word-spacing:0px;writing-mode:lr-tb;text-anchor:start;fill:#000000;fill-opacity:1;stroke:none;stroke-width:1px;stroke-linecap:butt;stroke-linejoin:miter;stroke-opacity:1"
         x="473.51025"
         y="740.00647"
         id="text4973"
         sodipodi:linespacing="125%"><tspan
           sodipodi:role="line"
           id="tspan4975"
           style="font-size:21.00000191px"
           x="473.51025"
           y="740.00647">Gnome</tspan></text>
      <rect
         style="opacity:1;fill:#f2f2f2;fill-opacity:1;fill-rule:nonzero;stroke:#000000;stroke-width:10;stroke-linecap:square;stroke-linejoin:round;stroke-miterlimit:4;stroke-dasharray:none;stroke-dashoffset:0;stroke-opacity:1"
         id="rect4993"
         width="1010"
         height="190"
         x="5"
         y="857.36218"
         rx="0.36266997"
         ry="0.36267" />
      <path
         style="opacity:1;fill:#ff0000;fill-opacity:0.58823529;fill-rule:nonzero;stroke:#000000;stroke-width:10;stroke-linecap:square;stroke-linejoin:round;stroke-miterlimit:4;stroke-dasharray:none;stroke-dashoffset:0;stroke-opacity:1"
         d="M 654.87879,981.47838 613.82353,1022.3622 555.88384,1022.241 515,981.18574 494.87879,981.47838 453.82353,1022.3622 395.88384,1022.241 355,981.18574 l 0.12121,-57.93969 41.05526,-40.88384 57.93969,0.12122 40.88384,41.05525 20.12121,-0.29263 41.05526,-40.88384 57.93969,0.12122 40.88384,41.05525 20.12121,-0.29266 41.05526,-40.88384 57.93969,0.12122 40.88384,41.05525 20.12121,-0.29263 41.05526,-40.88384 57.93969,0.12122 L 975,923.53865 974.87879,981.47834 933.82353,1022.3622 875.88384,1022.241 835,981.18571 814.87879,981.47834 773.82353,1022.3622 715.88384,1022.241 675,981.18571 Z"
         id="path4995"
         inkscape:connector-curvature="0"
         sodipodi:nodetypes="ccccccccccccccccccccccccccccccccc" />
      <path
         style="opacity:1;fill:#0000ff;fill-opacity:1;fill-rule:nonzero;stroke:#000000;stroke-width:10;stroke-linecap:square;stroke-linejoin:round;stroke-miterlimit:4;stroke-dasharray:none;stroke-dashoffset:0;stroke-opacity:1"
         d="m 452.88332,872.36216 -57.93969,-0.052 c 0.4518,-20.20349 0.29216,-42.17503 0.29216,-59.94805 l 57.94,0.052 c 0.0462,21.93106 0.0624,38.68957 -0.29247,59.94805 z"
         id="path5003"
         inkscape:connector-curvature="0"
         sodipodi:nodetypes="ccccc" />
      <path
         sodipodi:nodetypes="ccccc"
         inkscape:connector-curvature="0"
         id="path5007"
         d="m 773.81146,872.36216 -57.93969,-0.052 c 0.4518,-20.20349 0.29216,-42.17503 0.29216,-59.94805 l 57.94,0.052 c 0.0462,21.93106 0.0624,38.68957 -0.29247,59.94805 z"
         style="opacity:1;fill:#0000ff;fill-opacity:1;fill-rule:nonzero;stroke:#000000;stroke-width:10;stroke-linecap:square;stroke-linejoin:round;stroke-miterlimit:4;stroke-dasharray:none;stroke-dashoffset:0;stroke-opacity:1" />
      <path
         sodipodi:nodetypes="ccccc"
         inkscape:connector-curvature="0"
         id="path5009"
         d="m 613.81146,872.36216 -57.93969,-0.052 c 0.4518,-20.20349 0.29216,-42.17503 0.29216,-59.94805 l 57.94,0.052 c 0.0462,21.93106 0.0624,38.68957 -0.29247,59.94805 z"
         style="opacity:1;fill:#0000ff;fill-opacity:1;fill-rule:nonzero;stroke:#000000;stroke-width:10;stroke-linecap:square;stroke-linejoin:round;stroke-miterlimit:4;stroke-dasharray:none;stroke-dashoffset:0;stroke-opacity:1" />
      <text
         sodipodi:linespacing="125%"
         id="text5011"
         y="960.00647"
         x="632.7002"
         style="font-style:normal;font-variant:normal;font-weight:normal;font-stretch:normal;font-size:8.40000057px;line-height:125%;font-family:Monospace;-inkscape-font-specification:Monospace;text-align:start;letter-spacing:0px;word-spacing:0px;writing-mode:lr-tb;text-anchor:start;fill:#000000;fill-opacity:1;stroke:none;stroke-width:1px;stroke-linecap:butt;stroke-linejoin:miter;stroke-opacity:1"
         xml:space="preserve"><tspan
           y="960.00647"
           x="632.7002"
           style="font-size:21.00000191px"
           id="tspan5013"
           sodipodi:role="line">Linux</tspan></text>
      <path
         sodipodi:nodetypes="ccccc"
         inkscape:connector-curvature="0"
         id="path5015"
         d="m 773.81146,652.36216 -57.93969,-0.052 c 0.4518,-20.20349 0.29216,-42.17502 0.29216,-59.94804 l 57.94,0.052 c 0.0462,21.93105 0.0624,38.68949 -0.29247,59.94797 z"
         style="opacity:1;fill:#0000ff;fill-opacity:1;fill-rule:nonzero;stroke:#000000;stroke-width:10;stroke-linecap:square;stroke-linejoin:round;stroke-miterlimit:4;stroke-dasharray:none;stroke-dashoffset:0;stroke-opacity:1" />
      <path
         sodipodi:type="star"
         style="opacity:1;fill:#ff0000;fill-opacity:0.58823529;fill-rule:nonzero;stroke:#000000;stroke-width:10;stroke-linecap:square;stroke-linejoin:round;stroke-miterlimit:4;stroke-dasharray:none;stroke-dashoffset:0;stroke-opacity:1"
         id="path4841"
         sodipodi:sides="8"
         sodipodi:cx="745"
         sodipodi:cy="512.36218"
         sodipodi:r1="75.702019"
         sodipodi:r2="55.361095"
         sodipodi:arg1="1.1801893"
         sodipodi:arg2="1.5728884"
         inkscape:flatsided="true"
         inkscape:rounded="0"
         inkscape:randomized="0"
         d="M 773.82353,582.36218 715.88384,582.24097 675,541.18571 l 0.12121,-57.93969 41.05526,-40.88384 57.93969,0.12122 40.88384,41.05525 -0.12121,57.93969 z" />
      <text
         sodipodi:linespacing="125%"
         id="text4888"
         y="520.19104"
         x="699.9751"
         style="font-style:normal;font-variant:normal;font-weight:normal;font-stretch:normal;font-size:8.40000057px;line-height:125%;font-family:Monospace;-inkscape-font-specification:Monospace;text-align:start;letter-spacing:0px;word-spacing:0px;writing-mode:lr-tb;text-anchor:start;fill:#000000;fill-opacity:1;stroke:none;stroke-width:1px;stroke-linecap:butt;stroke-linejoin:miter;stroke-opacity:1"
         xml:space="preserve"><tspan
           y="520.19104"
           x="699.9751"
           style="font-size:21.00000191px"
           id="tspan4890"
           sodipodi:role="line">Firefox</tspan></text>
      <text
         xml:space="preserve"
         style="font-style:normal;font-variant:normal;font-weight:normal;font-stretch:normal;font-size:8.40000057px;line-height:125%;font-family:Monospace;-inkscape-font-specification:Monospace;text-align:start;letter-spacing:0px;word-spacing:0px;writing-mode:lr-tb;text-anchor:start;fill:#000000;fill-opacity:1;stroke:none;stroke-width:1px;stroke-linecap:butt;stroke-linejoin:miter;stroke-opacity:1"
         x="699.9751"
         y="520.19104"
         id="text5025"
         sodipodi:linespacing="125%"><tspan
           sodipodi:role="line"
           id="tspan5027"
           style="font-size:21.00000191px"
           x="699.9751"
           y="520.19104">Firefox</tspan></text>
      <path
         d="M 933.82353,582.36218 875.88384,582.24097 835,541.18571 l 0.12121,-57.93969 41.05526,-40.88384 57.93969,0.12122 40.88384,41.05525 -0.12121,57.93969 z"
         inkscape:randomized="0"
         inkscape:rounded="0"
         inkscape:flatsided="true"
         sodipodi:arg2="1.5728884"
         sodipodi:arg1="1.1801893"
         sodipodi:r2="55.361095"
         sodipodi:r1="75.702019"
         sodipodi:cy="512.36218"
         sodipodi:cx="905"
         sodipodi:sides="8"
         id="path5039"
         style="opacity:1;fill:#ff0000;fill-opacity:0.58823529;fill-rule:nonzero;stroke:#000000;stroke-width:10;stroke-linecap:square;stroke-linejoin:round;stroke-miterlimit:4;stroke-dasharray:none;stroke-dashoffset:0;stroke-opacity:1"
         sodipodi:type="star" />
      <text
         sodipodi:linespacing="125%"
         id="text5047"
         y="520.24744"
         x="892.58252"
         style="font-style:normal;font-variant:normal;font-weight:normal;font-stretch:normal;font-size:8.40000057px;line-height:125%;font-family:Monospace;-inkscape-font-specification:Monospace;text-align:start;letter-spacing:0px;word-spacing:0px;writing-mode:lr-tb;text-anchor:start;fill:#000000;fill-opacity:1;stroke:none;stroke-width:1px;stroke-linecap:butt;stroke-linejoin:miter;stroke-opacity:1"
         xml:space="preserve"><tspan
           y="520.24744"
           x="892.58252"
           style="font-size:21.00000191px"
           id="tspan5049"
           sodipodi:role="line">ls</tspan></text>
      <path
         style="opacity:1;fill:#0000ff;fill-opacity:1;fill-rule:nonzero;stroke:#000000;stroke-width:10;stroke-linecap:square;stroke-linejoin:round;stroke-miterlimit:4;stroke-dasharray:none;stroke-dashoffset:0;stroke-opacity:1"
         d="m 933.81146,872.36216 -57.93969,-0.052 c 0.4518,-20.20349 0.29216,-262.14895 0.29216,-279.92197 l 57.94,0.052 c 0.0462,21.93106 0.0624,258.66349 -0.29247,279.92197 z"
         id="path5053"
         inkscape:connector-curvature="0"
         sodipodi:nodetypes="ccccc" />
      <rect
         style="opacity:1;fill:#ffff00;fill-opacity:1;fill-rule:nonzero;stroke:#000000;stroke-width:9.99999905;stroke-linecap:square;stroke-linejoin:round;stroke-miterlimit:4;stroke-dasharray:none;stroke-dashoffset:0;stroke-opacity:1"
         id="rect5135"
         width="1009.9999"
         height="190"
         x="4.9999995"
         y="1077.3622"
         rx="0.36266997"
         ry="0.36267" />
      <path
         sodipodi:nodetypes="ccccc"
         inkscape:connector-curvature="0"
         id="path5161"
         d="m 452.88332,1092.3622 -57.93969,-0.052 c 0.4518,-20.2035 0.29216,-42.1751 0.29216,-59.9481 l 57.94,0.052 c 0.0462,21.9311 0.0624,38.6896 -0.29247,59.9481 z"
         style="opacity:1;fill:#0000ff;fill-opacity:1;fill-rule:nonzero;stroke:#000000;stroke-width:10;stroke-linecap:square;stroke-linejoin:round;stroke-miterlimit:4;stroke-dasharray:none;stroke-dashoffset:0;stroke-opacity:1" />
      <path
         style="opacity:1;fill:#0000ff;fill-opacity:1;fill-rule:nonzero;stroke:#000000;stroke-width:10;stroke-linecap:square;stroke-linejoin:round;stroke-miterlimit:4;stroke-dasharray:none;stroke-dashoffset:0;stroke-opacity:1"
         d="m 773.81146,1092.3622 -57.93969,-0.052 c 0.4518,-20.2035 0.29216,-42.1751 0.29216,-59.9481 l 57.94,0.052 c 0.0462,21.9311 0.0624,38.6896 -0.29247,59.9481 z"
         id="path5163"
         inkscape:connector-curvature="0"
         sodipodi:nodetypes="ccccc" />
      <path
         style="opacity:1;fill:#0000ff;fill-opacity:1;fill-rule:nonzero;stroke:#000000;stroke-width:10;stroke-linecap:square;stroke-linejoin:round;stroke-miterlimit:4;stroke-dasharray:none;stroke-dashoffset:0;stroke-opacity:1"
         d="m 613.81146,1092.3622 -57.93969,-0.052 c 0.4518,-20.2035 0.29216,-42.1751 0.29216,-59.9481 l 57.94,0.052 c 0.0462,21.9311 0.0624,38.6896 -0.29247,59.9481 z"
         id="path5165"
         inkscape:connector-curvature="0"
         sodipodi:nodetypes="ccccc" />
      <path
         sodipodi:nodetypes="ccccc"
         inkscape:connector-curvature="0"
         id="path5167"
         d="m 933.81238,1092.3622 -57.93969,-0.052 c 0.4518,-20.2035 0.29216,-42.1751 0.29216,-59.9481 l 57.94,0.052 c 0.0462,21.9311 0.0624,38.6896 -0.29247,59.9481 z"
         style="opacity:1;fill:#0000ff;fill-opacity:1;fill-rule:nonzero;stroke:#000000;stroke-width:10;stroke-linecap:square;stroke-linejoin:round;stroke-miterlimit:4;stroke-dasharray:none;stroke-dashoffset:0;stroke-opacity:1" />
      <text
         sodipodi:linespacing="125%"
         id="text5281"
         y="1180.191"
         x="34.000011"
         style="font-style:normal;font-variant:normal;font-weight:normal;font-stretch:normal;font-size:8.40000057px;line-height:125%;font-family:Monospace;-inkscape-font-specification:Monospace;text-align:start;letter-spacing:0px;word-spacing:0px;writing-mode:lr-tb;text-anchor:start;fill:#000000;fill-opacity:1;stroke:none;stroke-width:1px;stroke-linecap:butt;stroke-linejoin:miter;stroke-opacity:1"
         xml:space="preserve"><tspan
           y="1180.191"
           x="34.000011"
           style="font-size:21.00000191px"
           id="tspan5283"
           sodipodi:role="line">Hardware</tspan></text>
      <text
         sodipodi:linespacing="125%"
         id="text5285"
         y="960.24744"
         x="34.000008"
         style="font-style:normal;font-variant:normal;font-weight:normal;font-stretch:normal;font-size:8.40000057px;line-height:125%;font-family:Monospace;-inkscape-font-specification:Monospace;text-align:start;letter-spacing:0px;word-spacing:0px;writing-mode:lr-tb;text-anchor:start;fill:#000000;fill-opacity:1;stroke:none;stroke-width:1px;stroke-linecap:butt;stroke-linejoin:miter;stroke-opacity:1"
         xml:space="preserve"><tspan
           y="960.24744"
           x="34.000008"
           style="font-size:21.00000191px"
           id="tspan5287"
           sodipodi:role="line">Kernel</tspan></text>
      <text
         sodipodi:linespacing="125%"
         id="text5289"
         y="738.50427"
         x="34.000008"
         style="font-style:normal;font-variant:normal;font-weight:normal;font-stretch:normal;font-size:8.40000057px;line-height:125%;font-family:Monospace;-inkscape-font-specification:Monospace;text-align:start;letter-spacing:0px;word-spacing:0px;writing-mode:lr-tb;text-anchor:start;fill:#000000;fill-opacity:1;stroke:none;stroke-width:1px;stroke-linecap:butt;stroke-linejoin:miter;stroke-opacity:1"
         xml:space="preserve"><tspan
           y="738.50427"
           x="34.000008"
           style="font-size:21.00000191px"
           id="tspan5291"
           sodipodi:role="line">Interface gráfica</tspan></text>
      <text
         sodipodi:linespacing="125%"
         id="text5293"
         y="518.57605"
         x="34.000004"
         style="font-style:normal;font-variant:normal;font-weight:normal;font-stretch:normal;font-size:8.40000057px;line-height:125%;font-family:Monospace;-inkscape-font-specification:Monospace;text-align:start;letter-spacing:0px;word-spacing:0px;writing-mode:lr-tb;text-anchor:start;fill:#000000;fill-opacity:1;stroke:none;stroke-width:1px;stroke-linecap:butt;stroke-linejoin:miter;stroke-opacity:1"
         xml:space="preserve"><tspan
           y="518.57605"
           x="34.000004"
           style="font-size:21.00000191px"
           id="tspan5295"
           sodipodi:role="line">Aplicativos do usuário</tspan></text>
    </g>
  </g>
</svg>
