<?xml version="1.0" encoding="UTF-8" standalone="no"?>
<!-- Created with Inkscape (http://www.inkscape.org/) -->

<svg
   xmlns:dc="http://purl.org/dc/elements/1.1/"
   xmlns:cc="http://creativecommons.org/ns#"
   xmlns:rdf="http://www.w3.org/1999/02/22-rdf-syntax-ns#"
   xmlns:svg="http://www.w3.org/2000/svg"
   xmlns="http://www.w3.org/2000/svg"
   xmlns:sodipodi="http://sodipodi.sourceforge.net/DTD/sodipodi-0.dtd"
   xmlns:inkscape="http://www.inkscape.org/namespaces/inkscape"
   id="svg2"
   version="1.1"
   inkscape:version="0.48.4 r9939"
   width="708.6625"
   height="708.6625"
   xml:space="preserve"
   sodipodi:docname="logo.svg"><metadata
     id="metadata8"><rdf:RDF><cc:Work
         rdf:about=""><dc:format>image/svg+xml</dc:format><dc:type
           rdf:resource="http://purl.org/dc/dcmitype/StillImage" /><dc:title></dc:title></cc:Work></rdf:RDF></metadata><defs
     id="defs6"><clipPath
       clipPathUnits="userSpaceOnUse"
       id="clipPath16"><path
         d="m 0,566.93 566.93,0 L 566.93,0 0,0 0,566.93 z"
         id="path18" /></clipPath><clipPath
       clipPathUnits="userSpaceOnUse"
       id="clipPath48"><path
         d="m 0,566.93 566.93,0 L 566.93,0 0,0 0,566.93 z"
         id="path50" /></clipPath><clipPath
       clipPathUnits="userSpaceOnUse"
       id="clipPath16-0"><path
         inkscape:connector-curvature="0"
         d="m 0,566.93 566.93,0 L 566.93,0 0,0 0,566.93 z"
         id="path18-4" /></clipPath><clipPath
       clipPathUnits="userSpaceOnUse"
       id="clipPath16-6"><path
         inkscape:connector-curvature="0"
         d="m 0,566.93 566.93,0 L 566.93,0 0,0 0,566.93 z"
         id="path18-0" /></clipPath></defs><sodipodi:namedview
     pagecolor="#ffffff"
     bordercolor="#666666"
     borderopacity="1"
     objecttolerance="10"
     gridtolerance="10"
     guidetolerance="10"
     inkscape:pageopacity="0"
     inkscape:pageshadow="2"
     inkscape:window-width="1362"
     inkscape:window-height="729"
     id="namedview4"
     showgrid="false"
     inkscape:zoom="0.47096383"
     inkscape:cx="358.60797"
     inkscape:cy="291.14832"
     inkscape:window-x="0"
     inkscape:window-y="18"
     inkscape:window-maximized="0"
     inkscape:current-layer="g10" /><g
     id="g10"
     inkscape:groupmode="layer"
     inkscape:label="j_hacker_2"
     transform="matrix(1.25,0,0,-1.25,0,708.6625)"><g
       id="g44" /><g
       inkscape:groupmode="layer"
       id="layer1"
       inkscape:label="base"
       sodipodi:insensitive="true"
       style="display:none"><g
         transform="translate(10.67503,14.162198)"
         id="g3114"><g
           id="g3793"><g
             clip-path="url(#clipPath16-6)"
             id="g14"
             transform="translate(2.4022505,2.3977543)"
             inkscape:export-filename="/home/kropotkin/ownCloudFedel/Jovem Hacker/Identidade Visual/logo2.png"
             inkscape:export-xdpi="100"
             inkscape:export-ydpi="100"><g
               transform="translate(460.7959,334.5684)"
               id="g20"><path
                 inkscape:connector-curvature="0"
                 id="path22"
                 style="fill:#9dbd27;fill-opacity:1;fill-rule:nonzero;stroke:none"
                 d="m 0,0 c 0,-97.095 -78.984,-175.807 -176.416,-175.807 -97.432,0 -176.416,78.712 -176.416,175.807 0,97.094 78.984,175.805 176.416,175.805 C -78.984,175.805 0,97.094 0,0" /></g><g
               transform="translate(460.7959,334.5684)"
               id="g24"><path
                 inkscape:connector-curvature="0"
                 id="path26"
                 style="fill:none;stroke:#2b2b2a;stroke-width:23;stroke-linecap:butt;stroke-linejoin:miter;stroke-miterlimit:10;stroke-opacity:1;stroke-dasharray:none"
                 d="m 0,0 c 0,-97.095 -78.984,-175.807 -176.416,-175.807 -97.432,0 -176.416,78.712 -176.416,175.807 0,97.094 78.984,175.805 176.416,175.805 C -78.984,175.805 0,97.094 0,0 z" /></g><g
               transform="translate(331.1055,394.0635)"
               id="g28"><path
                 inkscape:connector-curvature="0"
                 id="path30"
                 style="fill:#2b2b2a;fill-opacity:1;fill-rule:nonzero;stroke:none"
                 d="m 0,0 c 0,26.181 -21.111,47.405 -47.152,47.405 -26.04,0 -47.151,-21.224 -47.151,-47.405 0,-21.021 13.61,-38.844 32.452,-45.054 l -32.452,-115.92 94.303,0 -32.454,115.92 C -13.61,-38.844 0,-21.021 0,0" /></g></g><text
             transform="scale(0.9445369,-1.0587199)"
             id="text32"
             x="149.90594"
             y="-252.49374"
             style="font-size:9.56445312px"
             inkscape:export-filename="/home/kropotkin/ownCloudFedel/Jovem Hacker/Identidade Visual/logo2.png"
             inkscape:export-xdpi="100"
             inkscape:export-ydpi="100"><tspan
               style="font-size:226.15029907px;font-variant:normal;font-weight:normal;font-stretch:normal;writing-mode:lr-tb;fill:#2b2b2a;fill-opacity:1;fill-rule:nonzero;stroke:none;font-family:Myriad Pro;-inkscape-font-specification:MyriadPro-Regular"
               x="149.90594"
               y="-252.49374"
               id="tspan34">}</tspan></text>
<text
             transform="scale(-0.94453689,1.0587199)"
             id="text36"
             x="-452.74771"
             y="388.89337"
             style="font-size:9.56445408px"
             inkscape:export-filename="/home/kropotkin/ownCloudFedel/Jovem Hacker/Identidade Visual/logo2.png"
             inkscape:export-xdpi="100"
             inkscape:export-ydpi="100"><tspan
               style="font-size:226.15031433px;font-variant:normal;font-weight:normal;font-stretch:normal;writing-mode:lr-tb;fill:#2b2b2a;fill-opacity:1;fill-rule:nonzero;stroke:none;font-family:Myriad Pro;-inkscape-font-specification:MyriadPro-Regular"
               x="-452.74771"
               y="388.89337"
               id="tspan38">}</tspan></text>
<path
             style="fill:#82ed00;fill-opacity:1;stroke:none"
             d="m 347.38548,491.98343 c -56.12055,-2.74869 -110.05041,-29.46868 -145.91989,-72.29722 -12.40735,-14.8145 -19.18884,-25.19523 -27.50644,-42.10531 -11.60353,-23.59054 -17.77089,-45.27924 -20.34198,-71.53646 -1.09305,-11.16277 -0.43258,-37.61267 1.2036,-48.20048 6.83591,-44.23556 26.627,-83.3618 58.13464,-114.92995 16.81389,-16.84618 32.63698,-28.16598 54.48034,-38.97512 21.27525,-10.528011 42.61118,-16.9657 66.06175,-19.932809 11.67299,-1.476939 35.54502,-1.677342 46.91886,-0.39388 76.61095,8.645035 141.23699,57.802609 169.58154,128.991609 5.63881,14.1622 9.55219,28.97202 12.19383,46.14643 2.19466,14.26832 2.37992,41.36998 0.37612,55.02101 -4.7913,32.64106 -15.35923,60.86527 -32.25941,86.15653 -41.17431,61.61772 -108.86492,95.68289 -182.92296,92.05565 z M 242.8362,421.58451 c 19.39307,-4.1026 26.62733,-12.96995 29.45279,-36.10155 0.42736,-3.4987 0.77702,-17.52692 0.77702,-31.17382 0,-33.85446 1.31806,-42.92631 7.24242,-49.8476 5.07209,-5.92559 12.42199,-8.33179 25.45006,-8.33179 l 7.84541,0 0,-10.77595 0,-10.77597 -9.19609,-0.43172 c -15.45468,-0.72557 -22.41567,-3.86519 -26.5419,-11.97123 -3.85482,-7.57282 -4.17518,-10.63315 -4.81488,-45.99487 -0.6116,-33.80878 -1.00426,-38.31726 -4.08418,-46.89426 -4.87454,-13.5747 -14.68589,-19.5595 -35.68804,-21.76926 -3.92241,-0.41271 -10.76318,-0.75623 -15.20171,-0.76338 l -8.07004,-0.013 0,10.88518 0,10.88517 8.44539,0.0131 c 14.71842,0.0228 22.93405,2.80738 25.988,8.80856 3.11423,6.11958 3.28527,7.97337 3.89615,42.22613 0.62729,35.17334 0.98618,39.02106 4.51572,48.41473 2.28206,6.07356 8.29082,12.06808 15.01449,14.97888 l 4.93527,2.13656 -5.82335,2.91468 c -7.0357,3.52149 -11.88461,8.54906 -14.20815,14.73169 -3.43956,9.15224 -3.80958,13.17706 -4.43088,48.19627 -0.6733,37.94994 -0.94381,39.93346 -6.15729,45.14694 -4.01997,4.01997 -8.61744,5.24104 -21.47785,5.70443 l -10.6975,0.38543 0,10.90421 0,10.90421 12.94961,-0.46284 c 8.30767,-0.29694 15.43371,-0.98836 19.87953,-1.92888 l 0,0 z m 258.44315,-10.59738 0,-10.50983 -4.69189,-0.013 c -8.20965,-0.0227 -18.631,-1.44075 -22.20385,-3.0212 -4.11911,-1.82207 -5.88565,-3.32353 -7.46849,-6.34779 -2.9843,-5.70196 -3.33847,-9.64957 -3.94009,-43.91782 -0.62599,-35.65667 -1.00696,-39.46208 -4.77445,-47.69136 -3.04653,-6.65451 -9.20145,-12.16071 -16.41435,-14.68428 -3.39128,-1.1865 -3.55935,-1.90196 -0.59953,-2.55205 3.31601,-0.72832 10.67482,-5.75973 13.29048,-9.08704 3.32486,-4.22949 4.57099,-6.96767 6.36066,-13.9766 1.44939,-5.67629 1.63865,-9.18335 2.15881,-40.00333 0.44011,-26.0764 0.82056,-34.63771 1.66799,-37.53508 3.30483,-11.29918 7.25575,-13.63754 25.10731,-14.85981 l 11.5074,-0.78791 0,-10.80121 0,-10.8012 -11.07285,0.48503 c -35.36097,1.54894 -45.6669,8.21595 -50.2111,32.48205 -0.94144,5.02731 -1.35143,14.06958 -1.77696,39.19066 -0.43913,25.92366 -0.7912,33.46707 -1.70788,36.59226 -4.1512,14.15246 -10.98086,18.64824 -29.63196,19.50591 l -9.1961,0.42289 0,10.69077 0,10.69077 10.32215,0.33835 c 12.04466,0.39481 17.34213,1.97245 21.88821,6.51852 7.00353,7.00354 8.32754,14.537 8.32754,47.38284 0,40.27894 2.0713,52.03833 10.81198,61.38283 7.38004,7.88985 19.13084,11.15164 40.79877,11.3249 l 11.4482,0.0915 0,-10.50982 z m -84.0786,3.3537 c 0,-0.37617 -37.16888,-133.28245 -39.40323,-140.89569 l -1.03942,-3.54172 6.89637,-3.38671 c 12.32279,-6.05156 21.11388,-14.81871 27.13884,-27.06494 4.16975,-8.47536 5.56647,-13.76221 6.15174,-23.2854 1.06481,-17.3258 -5.70692,-34.34614 -18.44635,-46.36388 -8.69964,-8.2068 -17.85894,-12.86073 -29.97193,-15.22904 -18.69806,-3.65581 -39.69992,3.0118 -52.82314,16.77012 -28.94108,30.34169 -19.45979,79.1875 18.69745,96.32586 l 4.65709,2.09174 -1.41874,5.11425 c -2.70756,9.76019 -38.37177,137.2448 -38.76021,138.55149 -0.36962,1.24338 2.78765,1.31372 58.9655,1.31372 32.64582,0 59.35603,-0.17991 59.35603,-0.3998 z"
             id="path3889"
             inkscape:connector-curvature="0"
             inkscape:export-filename="/home/kropotkin/ownCloudFedel/Jovem Hacker/Identidade Visual/logo2.png"
             inkscape:export-xdpi="100"
             inkscape:export-ydpi="100"
             transform="matrix(0.8,0,0,-0.8,0,566.93)" /></g></g></g><g
       id="g3899"
       transform="translate(0,-29.427372)"><g
         id="text3102"
         style="font-size:63.67697906px;font-style:normal;font-weight:normal;line-height:125%;letter-spacing:0px;word-spacing:0px;fill:#000000;fill-opacity:1;stroke:none;font-family:Sans"
         transform="scale(1,-1)"><path
           id="path3076"
           style="font-variant:normal;font-stretch:normal;font-family:Droid Sans;-inkscape-font-specification:Droid Sans"
           d="m 76.067383,-89.887507 c -5e-6,-0.787666 0.103636,-1.450967 0.310923,-1.989905 0.207276,-0.559655 0.487107,-1.005311 0.839491,-1.336968 0.352373,-0.352372 0.766936,-0.60111 1.243691,-0.746215 0.476741,-0.165817 0.994945,-0.24873 1.554614,-0.248738 0.538924,8e-6 1.046764,0.08292 1.523521,0.248738 0.497466,0.145105 0.922394,0.393843 1.274784,0.746215 0.352367,0.331657 0.632197,0.777313 0.839491,1.336968 0.20727,0.538938 0.31091,1.202239 0.310923,1.989905 -1.3e-5,0.766946 -0.103653,1.430247 -0.310923,1.989906 -0.207294,0.538934 -0.487124,0.984589 -0.839491,1.336968 -0.35239,0.352379 -0.777318,0.611481 -1.274784,0.777307 -0.476757,0.165824 -0.984597,0.248737 -1.523521,0.248738 -0.559669,-10e-7 -1.077873,-0.08291 -1.554614,-0.248738 -0.476755,-0.165826 -0.891318,-0.424928 -1.243691,-0.777307 -0.352384,-0.352379 -0.632215,-0.798034 -0.839491,-1.336968 -0.207287,-0.559659 -0.310928,-1.22296 -0.310923,-1.989906"
           inkscape:connector-curvature="0" /><path
           id="path3078"
           style="font-variant:normal;font-stretch:normal;font-family:Droid Sans;-inkscape-font-specification:Droid Sans"
           d="m 111.63695,-131.89317 -16.914202,45.456906 -5.565517,0 16.945289,-45.456906 5.53443,0"
           inkscape:connector-curvature="0" /><path
           id="path3080"
           style="font-variant:normal;font-stretch:normal;font-family:Droid Sans;-inkscape-font-specification:Droid Sans"
           d="m 114.34197,-71.138865 c -0.99495,-1.5e-5 -1.81371,-0.07256 -2.45629,-0.217646 -0.6633,-0.145112 -1.23332,-0.331665 -1.71007,-0.559661 l 0,-4.601656 c 0.53893,0.207271 1.08823,0.362733 1.64789,0.466384 0.55966,0.124358 1.20223,0.186543 1.92772,0.186553 0.55966,-1e-5 1.07786,-0.08292 1.55461,-0.248738 0.47675,-0.145107 0.89131,-0.424937 1.24369,-0.839491 0.37311,-0.393845 0.65294,-0.932777 0.8395,-1.616798 0.20727,-0.66331 0.31091,-1.523528 0.31092,-2.580659 l 0,-39.425003 5.65879,0 0,39.051895 c -10e-6,1.596064 -0.1762,3.026307 -0.52857,4.290734 -0.35239,1.285137 -0.90168,2.373366 -1.64789,3.264689 -0.74622,0.912027 -1.68935,1.60642 -2.82939,2.083183 -1.11933,0.497461 -2.4563,0.746199 -4.01091,0.746214 m 2.92268,-58.671125 c -1e-5,-1.24364 0.31091,-2.14532 0.93276,-2.70503 0.64257,-0.55961 1.43024,-0.83944 2.36302,-0.83949 0.45601,5e-5 0.88094,0.0726 1.27478,0.21765 0.41455,0.12441 0.76693,0.3317 1.05714,0.62184 0.31091,0.29024 0.54928,0.66335 0.71512,1.11933 0.18654,0.43533 0.27982,0.9639 0.27983,1.5857 -1e-5,1.20228 -0.33166,2.10395 -0.99495,2.70503 -0.64259,0.58043 -1.41989,0.87062 -2.33192,0.87058 -0.93278,4e-5 -1.72045,-0.29015 -2.36302,-0.87058 -0.62185,-0.58035 -0.93277,-1.48202 -0.93276,-2.70503"
           inkscape:connector-curvature="0" /><path
           id="path3082"
           style="font-variant:normal;font-stretch:normal;font-family:Droid Sans;-inkscape-font-specification:Droid Sans"
           d="m 162.06861,-103.56811 c -3e-5,2.83978 -0.35241,5.368614 -1.05713,7.586518 -0.68407,2.197194 -1.67902,4.052365 -2.98486,5.565517 -1.28518,1.492431 -2.85015,2.63248 -4.69494,3.42015 -1.84483,0.787671 -3.91764,1.181506 -6.21845,1.181506 -2.13502,0 -4.1042,-0.393835 -5.90753,-1.181506 -1.80337,-0.78767 -3.36834,-1.927719 -4.69494,-3.42015 -1.30588,-1.513152 -2.33192,-3.368323 -3.07813,-5.565517 -0.72549,-2.217904 -1.08824,-4.746738 -1.08823,-7.586518 -1e-5,-2.81901 0.34201,-5.31675 1.02604,-7.49324 0.70476,-2.19716 1.69971,-4.04196 2.98486,-5.53442 1.28514,-1.51313 2.85012,-2.65318 4.69493,-3.42015 1.86553,-0.78764 3.94871,-1.18147 6.24955,-1.18151 2.13498,4e-5 4.10416,0.39387 5.90753,1.18151 1.80333,0.76697 3.35794,1.90702 4.66385,3.42015 1.32657,1.49246 2.35261,3.33726 3.07813,5.53442 0.74618,2.17649 1.11929,4.67423 1.11932,7.49324 m -23.87886,0 c -1e-5,4.332206 0.70474,7.596891 2.11427,9.794069 1.43023,2.176464 3.74142,3.264693 6.93358,3.264689 3.19212,4e-6 5.48258,-1.088225 6.87139,-3.264689 1.40949,-2.197178 2.11425,-5.461863 2.11427,-9.794069 -2e-5,-4.33217 -0.71514,-7.56576 -2.14536,-9.70079 -1.40954,-2.1557 -3.71037,-3.23356 -6.90249,-3.23359 -3.19215,3e-5 -5.49298,1.07789 -6.90248,3.23359 -1.3888,2.13503 -2.08319,5.36862 -2.08318,9.70079"
           inkscape:connector-curvature="0" /><path
           id="path3084"
           style="font-variant:normal;font-stretch:normal;font-family:Droid Sans;-inkscape-font-specification:Droid Sans"
           d="m 177.30383,-86.436264 -11.6596,-34.139316 5.84534,0 6.18737,18.99738 c 0.22799,0.68404 0.49746,1.56499 0.8084,2.642841 0.31091,1.077877 0.62183,2.17647 0.93276,3.295782 0.31091,1.11933 0.59074,2.176466 0.8395,3.171412 0.26945,0.994957 0.44564,1.751535 0.52856,2.269736 l 0.21765,0 c 0.10363,-0.518201 0.27981,-1.274779 0.52857,-2.269736 0.24872,-0.994946 0.52855,-2.052082 0.83949,-3.171412 0.31091,-1.119312 0.62183,-2.217905 0.93277,-3.295782 0.3109,-1.077851 0.58037,-1.958801 0.8084,-2.642841 l 6.18736,-18.99738 5.84535,0 -11.65961,34.139316 -7.18231,0"
           inkscape:connector-curvature="0" /><path
           id="path3086"
           style="font-variant:normal;font-stretch:normal;font-family:Droid Sans;-inkscape-font-specification:Droid Sans"
           d="m 215.01877,-85.814419 c -2.28012,0 -4.3633,-0.383471 -6.24955,-1.150414 -1.88628,-0.766941 -3.51344,-1.886262 -4.88149,-3.357965 -1.34734,-1.471696 -2.39411,-3.295774 -3.14032,-5.472241 -0.74622,-2.176448 -1.11932,-4.663831 -1.11932,-7.462141 0,-2.81902 0.34201,-5.33749 1.02604,-7.55543 0.68403,-2.21789 1.64789,-4.09379 2.89159,-5.6277 1.24368,-1.55458 2.72574,-2.73609 4.44619,-3.54452 1.74115,-0.80836 3.65851,-1.21256 5.75207,-1.2126 2.05207,4e-5 3.89688,0.37314 5.53443,1.11932 1.6375,0.72552 3.02629,1.76193 4.16636,3.10923 1.14002,1.32663 2.01061,2.93307 2.61175,4.8193 0.62182,1.86556 0.93274,3.93838 0.93277,6.21846 l 0,3.51343 -21.51585,0 c 0.10363,4.000548 0.94312,6.943947 2.51847,8.830203 1.59606,1.88627 3.95907,2.829401 7.08904,2.829397 1.05712,4e-6 2.03134,-0.05182 2.92267,-0.155462 0.91202,-0.103636 1.7826,-0.248733 2.61175,-0.435291 0.84983,-0.207277 1.6686,-0.456015 2.45629,-0.746215 0.78765,-0.310917 1.58568,-0.652932 2.39411,-1.026045 l 0,5.036948 c -0.82916,0.393837 -1.64792,0.735852 -2.45629,1.026045 -0.7877,0.290195 -1.60646,0.528569 -2.45629,0.715123 -0.82915,0.186553 -1.69973,0.321286 -2.61175,0.404199 -0.89133,0.08291 -1.86556,0.124369 -2.92267,0.124369 m -1.39916,-30.688071 c -2.36303,3e-5 -4.23892,0.80842 -5.6277,2.42519 -1.36807,1.61683 -2.1661,3.96947 -2.3941,7.05795 l 15.2974,0 c -3e-5,-1.40949 -0.14513,-2.69464 -0.4353,-3.85544 -0.26949,-1.18148 -0.70478,-2.1868 -1.30587,-3.01595 -0.58041,-0.8291 -1.32663,-1.47167 -2.23865,-1.92772 -0.91206,-0.45599 -2.01065,-0.684 -3.29578,-0.68403"
           inkscape:connector-curvature="0" /><path
           id="path3088"
           style="font-variant:normal;font-stretch:normal;font-family:Droid Sans;-inkscape-font-specification:Droid Sans"
           d="m 276.48819,-86.436264 0,-21.982236 c -4e-5,-2.69464 -0.51825,-4.71564 -1.55461,-6.063 -1.03645,-1.3473 -2.64289,-2.02096 -4.8193,-2.02099 -1.5132,3e-5 -2.79835,0.24876 -3.85545,0.74621 -1.05717,0.47678 -1.92775,1.1919 -2.61175,2.14537 -0.66333,0.93279 -1.15044,2.10393 -1.46133,3.51342 -0.31096,1.38882 -0.46642,2.99525 -0.46639,4.81931 l 0,18.841916 -5.68988,0 0,-21.982236 c -3e-5,-2.69464 -0.51823,-4.71564 -1.55462,-6.063 -1.0157,-1.3473 -2.61177,-2.02096 -4.78821,-2.02099 -1.59609,3e-5 -2.93305,0.26949 -4.0109,0.8084 -1.07788,0.53896 -1.94846,1.33699 -2.61175,2.3941 -0.64259,1.05716 -1.10897,2.35267 -1.39916,3.88653 -0.26947,1.53391 -0.40421,3.29581 -0.40419,5.28569 l 0,17.691506 -5.6588,0 0,-34.139316 4.60166,0 0.8084,4.60165 0.31092,0 c 0.49746,-0.89128 1.08822,-1.65822 1.77226,-2.30082 0.68402,-0.66327 1.43023,-1.21257 2.23864,-1.64789 0.82911,-0.43526 1.6997,-0.75655 2.61175,-0.96386 0.93275,-0.20725 1.87589,-0.31089 2.8294,-0.31093 2.48736,4e-5 4.54981,0.45606 6.18736,1.36806 1.65823,0.91208 2.88119,2.34232 3.66889,4.29074 l 0.24874,0 c 0.5389,-0.9742 1.18148,-1.81369 1.92772,-2.51848 0.76691,-0.70472 1.59604,-1.28511 2.48738,-1.74117 0.91201,-0.47671 1.8655,-0.82909 2.86049,-1.05713 0.99492,-0.22798 2.0106,-0.34198 3.04705,-0.34202 3.62738,4e-5 6.35314,0.99499 8.17726,2.98486 1.84476,1.96921 2.76716,5.13025 2.76722,9.48314 l 0,22.293166 -5.6588,0"
           inkscape:connector-curvature="0" /><path
           id="path3090"
           style="font-variant:normal;font-stretch:normal;font-family:Droid Sans;-inkscape-font-specification:Droid Sans"
           d="m 313.58128,-76.362367 -26.42844,0 0,-4.352918 26.42844,0 0,4.352918"
           inkscape:connector-curvature="0" /><path
           id="path3092"
           style="font-variant:normal;font-stretch:normal;font-family:Droid Sans;-inkscape-font-specification:Droid Sans"
           d="m 340.25844,-86.436264 0,-21.982236 c -3e-5,-2.69464 -0.54933,-4.71564 -1.64789,-6.063 -1.07789,-1.3473 -2.7776,-2.02096 -5.09914,-2.02099 -1.679,3e-5 -3.08851,0.26949 -4.22855,0.8084 -1.14006,0.53896 -2.06246,1.33699 -2.76721,2.3941 -0.68404,1.05716 -1.18152,2.35267 -1.49243,3.88653 -0.2902,1.53391 -0.4353,3.29581 -0.43529,5.28569 l 0,17.691506 -5.65879,0 0,-48.379576 5.65879,0 0,14.36463 -0.24874,4.47728 0.31093,0 c 0.51819,-0.89128 1.12967,-1.65822 1.83444,-2.30082 0.72547,-0.66327 1.51314,-1.21257 2.36301,-1.64789 0.84984,-0.43526 1.75152,-0.75655 2.70503,-0.96386 0.95348,-0.20725 1.9277,-0.31089 2.92267,-0.31093 3.79324,4e-5 6.64336,0.99499 8.55038,2.98486 1.92769,1.96921 2.89155,5.13025 2.89158,9.48314 l 0,22.293166 -5.65879,0"
           inkscape:connector-curvature="0" /><path
           id="path3094"
           style="font-variant:normal;font-stretch:normal;font-family:Droid Sans;-inkscape-font-specification:Droid Sans"
           d="m 375.73472,-86.436264 -1.15042,-4.726026 -0.24873,0 c -0.68406,0.932772 -1.36809,1.741171 -2.05209,2.425198 -0.68405,0.663303 -1.43027,1.212599 -2.23865,1.64789 -0.80841,0.435292 -1.71009,0.756579 -2.70503,0.963861 -0.99496,0.207281 -2.14538,0.310922 -3.45124,0.310922 -1.43025,0 -2.74649,-0.207282 -3.94872,-0.621845 -1.20224,-0.393835 -2.24901,-1.005316 -3.14032,-1.834444 -0.87059,-0.849853 -1.55461,-1.906989 -2.05209,-3.171412 -0.49748,-1.285141 -0.74621,-2.798297 -0.74621,-4.539472 0,-3.39941 1.19186,-6.011158 3.57561,-7.835258 2.40446,-1.82406 6.05262,-2.81901 10.94448,-2.98485 l 5.72098,-0.21765 0,-2.14537 c -2e-5,-1.38876 -0.15548,-2.54954 -0.46638,-3.48233 -0.29022,-0.93274 -0.72551,-1.67896 -1.30588,-2.23865 -0.55968,-0.58036 -1.26444,-0.99492 -2.11427,-1.24369 -0.82915,-0.2487 -1.78265,-0.37307 -2.86049,-0.3731 -1.72046,3e-5 -3.32689,0.24876 -4.81931,0.74621 -1.47171,0.49751 -2.89159,1.09862 -4.25964,1.80335 l -1.9899,-4.25964 c 1.53387,-0.82909 3.24395,-1.53385 5.13022,-2.11427 1.88625,-0.58036 3.86579,-0.87055 5.93863,-0.87059 2.11425,4e-5 3.93833,0.21768 5.47224,0.65294 1.55459,0.4146 2.82937,1.08826 3.82435,2.021 1.01565,0.91207 1.77223,2.08321 2.26973,3.51343 0.49745,1.43027 0.74619,3.16107 0.74622,5.19241 l 0,23.381386 -4.07309,0 m -10.38482,-3.948719 c 1.2644,4e-6 2.43554,-0.196914 3.51343,-0.590753 1.07784,-0.393831 2.01061,-0.984583 2.7983,-1.77226 0.78765,-0.808392 1.39913,-1.813708 1.83444,-3.015951 0.456,-1.222952 0.68401,-2.653195 0.68403,-4.290733 l 0,-3.07814 -4.44619,0.21765 c -1.86555,0.0829 -3.43053,0.29021 -4.69493,0.62185 -1.26444,0.33166 -2.28012,0.79805 -3.04705,1.39915 -0.74622,0.5804 -1.28515,1.295523 -1.6168,2.145365 -0.33166,0.829139 -0.49748,1.77227 -0.49747,2.829397 -10e-6,1.907001 0.49747,3.306152 1.49243,4.197457 1.01567,0.891316 2.34227,1.336972 3.97981,1.336968"
           inkscape:connector-curvature="0" /><path
           id="path3096"
           style="font-variant:normal;font-stretch:normal;font-family:Droid Sans;-inkscape-font-specification:Droid Sans"
           d="m 403.37576,-85.814419 c -2.09357,0 -4.05238,-0.321287 -5.87644,-0.96386 -1.8241,-0.663301 -3.4098,-1.699709 -4.75712,-3.109228 -1.34734,-1.430239 -2.40448,-3.243954 -3.17141,-5.441148 -0.76695,-2.217904 -1.15042,-4.881475 -1.15042,-7.990715 0,-3.2543 0.39383,-6.01115 1.18151,-8.27054 0.78766,-2.28008 1.86553,-4.12488 3.23359,-5.53443 1.38878,-1.43021 3.00558,-2.46662 4.8504,-3.10923 1.84479,-0.64254 3.82433,-0.96382 5.93862,-0.96386 1.61678,4e-5 3.19212,0.17623 4.72603,0.52857 1.55459,0.35241 2.8501,0.78771 3.88653,1.30588 l -1.67898,4.78821 c -0.47677,-0.20726 -1.00534,-0.40417 -1.5857,-0.59076 -0.58042,-0.20725 -1.18153,-0.38344 -1.80336,-0.52856 -0.62186,-0.1658 -1.23334,-0.29017 -1.83444,-0.37311 -0.60114,-0.10361 -1.17116,-0.15543 -1.71008,-0.15546 -3.25434,3e-5 -5.62771,1.0468 -7.12013,3.14032 -1.49244,2.07284 -2.23865,5.30643 -2.23864,9.70079 -10e-6,4.373655 0.7462,7.576156 2.23864,9.607509 1.51315,2.010639 3.80361,3.015955 6.8714,3.015951 1.67896,4e-6 3.19211,-0.186549 4.53947,-0.559661 1.36803,-0.39383 2.61172,-0.84985 3.73107,-1.36806 l 0,5.036948 c -1.11935,0.601118 -2.32158,1.057138 -3.6067,1.36806 -1.26444,0.310923 -2.81906,0.466384 -4.66384,0.466384"
           inkscape:connector-curvature="0" /><path
           id="path3098"
           style="font-variant:normal;font-stretch:normal;font-family:Droid Sans;-inkscape-font-specification:Droid Sans"
           d="m 425.016,-104.06558 4.19745,-5.28569 9.11004,-11.22431 6.56047,0 -12.468,14.76883 13.30749,19.370486 -6.49828,0 -10.44701,-15.670506 -3.38906,2.549566 0,13.12094 -5.59661,0 0,-48.379576 5.59661,0 0,22.19988 -0.49747,8.55038 0.12437,0"
           inkscape:connector-curvature="0" /><path
           id="path3100"
           style="font-variant:normal;font-stretch:normal;font-family:Droid Sans;-inkscape-font-specification:Droid Sans"
           d="m 464.87629,-85.814419 c -2.28011,0 -4.36329,-0.383471 -6.24954,-1.150414 -1.88628,-0.766941 -3.51344,-1.886262 -4.88149,-3.357965 -1.34734,-1.471696 -2.39411,-3.295774 -3.14032,-5.472241 -0.74622,-2.176448 -1.11933,-4.663831 -1.11932,-7.462141 -10e-6,-2.81902 0.34201,-5.33749 1.02604,-7.55543 0.68403,-2.21789 1.64789,-4.09379 2.89158,-5.6277 1.24369,-1.55458 2.72575,-2.73609 4.4462,-3.54452 1.74115,-0.80836 3.65851,-1.21256 5.75207,-1.2126 2.05207,4e-5 3.89688,0.37314 5.53443,1.11932 1.6375,0.72552 3.02628,1.76193 4.16636,3.10923 1.14002,1.32663 2.0106,2.93307 2.61175,4.8193 0.62182,1.86556 0.93274,3.93838 0.93277,6.21846 l 0,3.51343 -21.51585,0 c 0.10363,4.000548 0.94312,6.943947 2.51847,8.830203 1.59606,1.88627 3.95907,2.829401 7.08904,2.829397 1.05712,4e-6 2.03134,-0.05182 2.92267,-0.155462 0.91202,-0.103636 1.7826,-0.248733 2.61175,-0.435291 0.84983,-0.207277 1.6686,-0.456015 2.45629,-0.746215 0.78765,-0.310917 1.58568,-0.652932 2.39411,-1.026045 l 0,5.036948 c -0.82916,0.393837 -1.64792,0.735852 -2.45629,1.026045 -0.7877,0.290195 -1.60646,0.528569 -2.45629,0.715123 -0.82915,0.186553 -1.69973,0.321286 -2.61175,0.404199 -0.89133,0.08291 -1.86556,0.124369 -2.92268,0.124369 m -1.39915,-30.688071 c -2.36303,3e-5 -4.23893,0.80842 -5.6277,2.42519 -1.36807,1.61683 -2.1661,3.96947 -2.39411,7.05795 l 15.2974,0 c -2e-5,-1.40949 -0.14512,-2.69464 -0.43529,-3.85544 -0.26949,-1.18148 -0.70478,-2.1868 -1.30587,-3.01595 -0.58042,-0.8291 -1.32663,-1.47167 -2.23865,-1.92772 -0.91206,-0.45599 -2.01065,-0.684 -3.29578,-0.68403"
           inkscape:connector-curvature="0" /><path
           id="path3102"
           style="font-variant:normal;font-stretch:normal;font-family:Droid Sans;-inkscape-font-specification:Droid Sans"
           d="m 500.2282,-121.19743 c 0.60109,4e-5 1.27476,0.0311 2.02099,0.0933 0.74619,0.0415 1.38877,0.11404 1.92772,0.21765 l -0.74621,5.2235 c -0.58041,-0.10361 -1.18153,-0.18653 -1.80335,-0.24874 -0.60114,-0.0829 -1.17117,-0.12434 -1.71008,-0.12437 -1.30589,3e-5 -2.49776,0.2695 -3.57561,0.8084 -1.07788,0.51823 -2.01065,1.27481 -2.7983,2.26974 -0.76696,0.97425 -1.36808,2.15575 -1.80336,3.54451 -0.41457,1.36809 -0.62185,2.89161 -0.62184,4.57057 l 0,18.406626 -5.6588,0 0,-34.139316 4.60166,0 0.68403,6.24955 0.24874,0 c 0.51819,-0.89129 1.06749,-1.75151 1.64789,-2.58066 0.6011,-0.8291 1.26441,-1.55459 1.98991,-2.17646 0.74619,-0.64254 1.57532,-1.15038 2.48738,-1.52352 0.91202,-0.39381 1.94843,-0.59072 3.10923,-0.59076"
           inkscape:connector-curvature="0" /></g><g
         transform="translate(-6.1243142,0)"
         id="g3892"><path
           sodipodi:type="arc"
           style="fill:#82ed00;fill-opacity:1;stroke:#000000;stroke-width:40;stroke-miterlimit:4;stroke-opacity:1;stroke-dasharray:none"
           id="path3023"
           sodipodi:cx="359.58615"
           sodipodi:cy="307.03702"
           sodipodi:rx="230.46545"
           sodipodi:ry="230.46545"
           d="m 590.05161,307.03702 c 0,127.28255 -103.1829,230.46545 -230.46546,230.46545 -127.28255,0 -230.46545,-103.1829 -230.46545,-230.46545 0,-127.28256 103.1829,-230.465456 230.46545,-230.465456 127.28256,0 230.46546,103.182896 230.46546,230.465456 z"
           transform="matrix(0.8,0,0,-0.8,8.5775398,599.90315)" /><text
           xml:space="preserve"
           style="font-size:202.61737061px;font-style:normal;font-variant:normal;font-weight:500;font-stretch:normal;line-height:125%;letter-spacing:0px;word-spacing:0px;fill:#000000;fill-opacity:1;stroke:none;font-family:Delicious;-inkscape-font-specification:Delicious Medium"
           x="198.12286"
           y="-233.71156"
           id="text3871"
           sodipodi:linespacing="125%"
           transform="scale(0.82562734,-1.2112002)"><tspan
             sodipodi:role="line"
             id="tspan3873"
             x="198.12286"
             y="-233.71156"
             style="font-style:normal;font-variant:normal;font-weight:normal;font-stretch:normal;font-family:DejaVu Sans;-inkscape-font-specification:DejaVu Sans">} {</tspan></text>
<path
           sodipodi:type="arc"
           style="fill:#000000;fill-opacity:1;stroke:#000000;stroke-width:1;stroke-linejoin:round;stroke-miterlimit:4;stroke-opacity:1;stroke-dasharray:none"
           id="path3877"
           sodipodi:cx="376.85229"
           sodipodi:cy="192.17964"
           sodipodi:rx="57.053337"
           sodipodi:ry="57.053337"
           d="m 433.90563,192.17964 c 0,31.50969 -25.54365,57.05334 -57.05334,57.05334 -31.50968,0 -57.05333,-25.54365 -57.05333,-57.05334 0,-31.50969 25.54365,-57.05334 57.05333,-57.05334 31.50969,0 57.05334,25.54365 57.05334,57.05334 z"
           transform="matrix(0.8221357,0,0,-0.8221357,-12.794579,568.70893)" /><path
           style="fill:#000000;fill-opacity:1;stroke:#000000;stroke-width:1px;stroke-linecap:butt;stroke-linejoin:miter;stroke-opacity:1"
           d="m 353.53033,251.62101 -40.3428,143.85393 117.31262,0 -41.40445,-145.44641 z"
           id="path3890"
           inkscape:connector-curvature="0"
           transform="matrix(0.8,0,0,-0.8,0,566.93)" /></g></g></g></svg>